<svg viewBox="0 0 128 128" xmlns="http://www.w3.org/2000/svg">
  <rect width="128" height="128" rx="12" fill="#f2f2f2"/>
  <path d="M51.5 26.5v25h25v25h25v-50h-50zm25 50h-25v25h25v-25zm-25 0v-25h-25v25h25z" fill="#3f76ff"/>
</svg>
