<svg xmlns="http://www.w3.org/2000/svg" width="50" height="50" viewBox="0 0 50 50">
  <g fill="#509EE3">
	<!-- // #dcecf9 -->
    <ellipse cx="10.5757576" cy="13.9911029" rx="2.57575758" ry="2.61692926"/>
    <ellipse cx="10.5757576" cy="21.3185048" rx="2.57575758" ry="2.61692926"/>
    <ellipse cx="17.7878788" cy="13.9911029" fill="#dcecf9" rx="2.57575758" ry="2.61692926"/>
    <ellipse cx="17.7878788" cy="21.3896853" rx="2.57575758" ry="2.61692926"/>
    <ellipse cx="25" cy="13.9911029" fill="#dcecf9" rx="2.57575758" ry="2.61692926"/>
    <ellipse cx="25" cy="5.61692926" fill="#dcecf9" rx="2.57575758" ry="2.61692926"/>
    <ellipse cx="25" cy="21.3896853" fill="#dcecf9" rx="2.57575758" ry="2.61692926"/>
    <ellipse cx="32.2121212" cy="13.9911029" fill="#dcecf9" rx="2.57575758" ry="2.61692926"/>
    <ellipse cx="39.4242424" cy="13.9911029" rx="2.57575758" ry="2.61692926"/>
    <ellipse cx="32.2121212" cy="21.3896853" rx="2.57575758" ry="2.61692926"/>
    <ellipse cx="39.4242424" cy="21.3896853" rx="2.57575758" ry="2.61692926"/>
    <ellipse cx="10.5757576" cy="28.6459067" rx="2.57575758" ry="2.61692926"/>
    <ellipse cx="17.7878788" cy="28.7170872" fill="#dcecf9" rx="2.57575758" ry="2.61692926"/>
    <ellipse cx="25" cy="28.7170872" rx="2.57575758" ry="2.61692926"/>
    <ellipse cx="32.2121212" cy="28.7170872" fill="#dcecf9" rx="2.57575758" ry="2.61692926"/>
    <ellipse cx="39.4242424" cy="28.7170872" rx="2.57575758" ry="2.61692926"/>
    <ellipse cx="10.5757576" cy="35.9733086" rx="2.57575758" ry="2.61692926"/>
    <ellipse cx="17.7878788" cy="36.0444891" fill="#dcecf9" rx="2.57575758" ry="2.61692926"/>
    <ellipse cx="25" cy="36.0444891" fill="#dcecf9" rx="2.57575758" ry="2.61692926"/>
    <ellipse cx="25" cy="43.371891" fill="#dcecf9" rx="2.57575758" ry="2.61692926"/>
    <ellipse cx="32.2121212" cy="36.0444891" fill="#dcecf9" rx="2.57575758" ry="2.61692926"/>
    <ellipse cx="39.4242424" cy="36.0444891" rx="2.57575758" ry="2.61692926"/>
  </g>
</svg>
