<svg xmlns="http://www.w3.org/2000/svg" width="400" height="400" viewBox="0 0 105.8 105.8">
  <path fill="#2f855a" d="M51.7.5a52.4 52.4 0 1 0 50.2 69.4 52 52 0 0 0 2.8-17l.1-.1-.2-3.3h-5.4l-3 6.5a44 44 0 0 1-40.6 40.6v-5.8h-6.5v5.8A44 44 0 0 1 8.5 56h5v-6.4h-5A44 44 0 0 1 49 9v5.6h6.7V.6a52.4 52.4 0 0 0-4-.1zm49.7 17-17.2 8 3.2 1.6 2 1-4 8.4-.8 1.6-2.5 5.3-6.7 13.7v.2L74 60l-5 10.7h13l13-27.2 3.3-6.9 1.6-3.4 6 2.8-4.5-18.5zM18.1 38.1l3.3 6.9 11.8 24.5L39.7 56l-5.3-10.9-3.3-7h-13zm33.9.1 3.4 6.9 3.1 6.6 8.8 18.1 5-10.6 1.3-2.7-8.8-18.3H52zm-1.8 1.3-2 4-6.7 13.8L35 70.7h13L56.6 53l-1.3-2.9-3.2-6.6-1.9-4z"/>
</svg>
